2758|1
19|0
267|1
367|0
238|3
392|3
2755|4
381|3
70|3
82|1
2766|2
146|2
257|1
141|3
228|3
119|4
81|0
492|0
2741|3
218|2
466|2
247|1
216|2
2762|1
99|1
4|2
2740|0
104|3
378|0
262|0
408|0
109|2
269|2
320|1
425|0
18|4
106|2
486|3
424|0
432|3
487|0
405|2
193|2
496|2
2752|2
488|3
85|2
2772|2
2734|3
20|2
91|0
517|4
506|1
404|4
251|2
74|1
326|1
458|1
2748|2
124|3
379|4
2764|0
38|4
51|2
65|2
6|0
295|3
442|0
212|2
308|2
52|1
116|1
105|4
402|1
333|2
32|2
350|2
55|3
184|2
518|1
136|4
438|4
317|1
8|1
373|0
355|2
167|1
387|4
128|1
151|2
2763|2
403|2
22|2
439|2
79|4
175|4
163|4
294|3
2473|0
265|4
203|4
450|4
2746|2
357|4
423|0
430|3
222|0
140|4
48|2
362|0
490|1
2738|2
339|2
285|4
465|1
84|0
410|4
234|2
474|0
330|0
279|3
332|2
174|4
259|4
399|4
2771|4
493|4
463|2
406|1
346|0
2760|0
62|0
448|1
40|2
273|1
2774|2
10|4
98|2
336|1
120|0
233|1
2747|2
412|4
130|2
360|0
33|4
287|4
497|2
341|1
162|1
342|2
139|2
375|0
25|2
479|3
400|3
349|0
225|2
293|1
2751|2
210|2
409|2
2744|2
56|4
277|4
215|1
443|0
447|2
391|2
2745|3
452|2
169|4
253|0
311|2
377|1
254|1
299|2
2743|0
224|0
329|1
173|1
282|4
2749|4
23|2
298|0
2753|1
61|1
276|1
570|0
331|1
461|4
324|0
374|2
127|3
53|1
467|0
435|2
161|2
160|3
150|2
489|4
328|4
133|2
39|1
386|3
246|1
189|0
93|1
115|2
230|0
207|4
2737|1
252|2
314|2
186|3
232|2
485|3
274|3
327|1
261|4
108|1
504|1
94|0
449|1
305|4
36|2
135|0
477|2
481|4
68|4
143|1
114|1
495|0
152|0
180|2
16|1
453|4
31|1
194|1
117|2
354|4
376|0
451|4
505|0
303|0
129|2
315|1
196|1
316|2
454|0
123|2
280|4
2735|1
12|0
187|1
390|3
96|2
401|4
24|2
359|0
300|0
383|2
182|4
3|2
9|2
58|2
462|2
337|2
59|1
473|2
348|1
494|4
154|3
499|3
223|1
498|0
17|1
28|1
371|2
217|1
286|3
158|1
2759|4
352|2
101|2
2742|4
361|1
172|0
469|4
205|1
502|0
388|2
2739|2
50|0
491|2
363|2
2770|2
157|0
54|1
206|2
179|2
165|1
2754|2
242|4
288|2
318|2
2733|2
338|0
44|1
60|1
307|2
147|3
181|1
204|2
2756|4
86|4
90|3
153|2
2750|1
284|4
226|2
2765|2
198|1
255|4
126|0
2471|4
1|3
2773|2
468|3
199|4
260|0
168|1
2761|4
416|1
413|4
2757|0
289|2
2472|0
335|0
237|4
569|2
45|0
241|2
166|1
464|4
208|4
177|2
437|1
34|2
380|2
460|2
258|2
73|3
213|4
111|1
441|3
42|1
122|2
190|3
80|4
49|2
14|2
321|2
268|1
7|1
149|3
358|1
520|0
475|4
2767|3
41|1
2769|4
270|4
195|4
2768|3
76|2
297|2
368|1
503|1
2775|4
67|4
519|2
240|1
366|1
103|3
239|2
131|4
197|2
414|4
231|2
137|3
427|1
75|0
459|1
256|0
35|3
21|3
211|1
64|3
2736|2
