195|F/C
251|G
106|G/F
285|G
120|G
8|G
264|F
305|G
497|G
80|F
2757|G
318|C
312|G
179|G/F
496|F
2764|G
276|C
110|F
175|G
2737|G
2743|G
99|G
48|F
28|G
262|F
94|G
362|G
204|G/F
2769|C
151|F/C
384|G/F
162|F
30|F
253|G
399|G
119|C
356|G
299|G
270|F
122|F
2773|G
62|G
329|F
518|G
268|G
454|G/F
214|C
180|C
127|G
390|G
101|F
20|C
339|G/F
486|G
330|F
82|G/F
25|G
2733|F
359|G
2750|F
213|F
137|F
117|G
438|F/C
185|G
265|F
405|G
168|G
136|F
2765|F/C
218|G
196|F
309|G
373|G
349|F
363|F
341|G
27|G
286|F/C
230|C
409|F
2745|G
449|C
155|G
149|C
93|F
307|C
382|G/F
335|G
205|G
2755|G
197|F
187|F
2756|F
114|F
351|F
191|G
156|G/F
295|G/F
386|G
269|F
228|G
194|G/F
126|G
135|F/C
252|F
39|G
506|G
2734|F
316|F
336|G
520|C
489|G
378|F
131|G
2744|F
178|C
67|C
255|G
464|F
241|F
357|F
352|G
2740|F
17|F
2771|F
224|C
479|F
89|C
160|F/C
284|C
33|G
2746|G/F
2748|C
2741|F
109|G
51|F
239|F
2766|G
406|C
76|F
2763|G
203|F/C
385|F
505|G
219|C
81|F
273|G
12|F
282|F
321|F
79|C
10|G
502|F
450|C
324|C
42|F
481|F
90|G
18|G
139|F
146|C
59|G
143|G
338|G
424|F
98|G
193|G
381|F
466|G/F
243|G
2768|G
167|G
116|G
350|F
2751|G
64|G
235|G
248|G
387|C
84|G
207|F/C
458|G
198|G/F
2736|G
74|G
413|F
163|G
6|C
102|C
315|C
246|G
2473|G
2767|F
488|C
159|G
343|G
72|F
267|G
354|G
2761|C
41|G
186|C
234|F
177|G
141|G
346|C
402|F
227|G/F
337|G/F
380|G
247|G
280|F
311|F
2742|G
410|C
517|G/F
138|F
242|F
459|F/C
16|F
2774|F
391|C
400|G
54|C
274|G/F
342|F
320|G
47|F/C
103|G
412|F
2754|F
115|C
236|G
148|C
208|F
2758|G
323|G
322|F
2752|F
211|F
46|F
294|F
368|G/F
36|G
304|F
15|G
174|G
361|F
77|G
125|F/C
451|G
140|G
4|G
2471|F
153|G
2747|F
200|F
257|G
73|F
40|C
56|C
182|G/F
53|G
355|G
277|F
222|F/C
261|F
123|G
92|G
23|G
44|F
371|G
332|G/F
333|G
2753|G
58|G
1|F
189|F
290|G
569|F
404|F
233|F
206|G
111|F
237|F
372|G
376|F
86|C
226|G
500|G/F
2749|G
13|G/F
49|F
22|G
360|G
70|F
45|G
225|F
2738|F
303|F
293|G
495|G
2770|C
60|C
287|F
165|G
327|G
105|G
21|F
152|G
469|F
75|C
475|C
401|G
570|G
124|G/F
462|G
281|G
301|G
245|F
425|F
181|G/F
340|F
43|F
498|G
367|G
259|G/F
166|G
298|F
519|F
432|F
112|F/C
254|F
3|F
61|C
96|G
87|C
169|F
388|G
14|G
493|C
2472|F
319|F
147|G/F
221|F/C
121|F/C
210|F
258|F
157|G
108|G
215|F
35|F
65|G
52|F/C
317|G/F
503|G/F
37|G
2775|F
173|G/F
32|F
375|G
358|G
2772|F
164|G
491|F
2759|G
2760|F
78|F
133|G
279|F/C
308|G
150|G
2762|F
490|G
416|G
232|F
331|G
158|F/C
113|G
172|G
377|F
183|C
9|F
260|F
184|F
24|F
403|G
494|F
55|G
374|F
68|G
118|C
272|G
130|G
223|F/C
240|G
128|G
38|C
283|C
300|F
2739|G
231|F
217|F
353|F
212|F
383|F
328|F
256|C
216|F
263|C
2735|G
202|G
266|C
144|C
7|F